14303,4,5,68
20443,3,7,54
40622,6,13,108
48449,2,16,47
33030,3,11,58
1055,2,1,32
16903,2,6,37
18055,5,6,85
34789,7,11,122
26265,2,9,40
5029,4,2,65
1374,3,1,48
45999,4,15,78
3757,1,2,17
10605,2,4,35
1344,3,1,48
23931,4,8,71
33014,3,11,58
8512,5,3,82
50600,7,16,127
30722,5,10,89
37447,6,12,107
1477,3,1,48
39693,4,13,76
41101,7,13,124
42529,3,14,61
26303,2,9,40
1740,4,1,64
47969,1,16,31
20250,3,7,54
391,0,1,0
14896,5,5,84
38577,1,13,28
3891,1,2,17
30637,5,10,89
39354,3,13,60
30704,5,10,89
38219,0,13,12
20402,3,7,54
13924,3,5,52
10869,3,4,51
34341,6,11,106
30139,4,10,73
11740,5,4,83
24236,5,8,87
49599,5,16,95
16727,2,6,37
49269,4,16,79
48395,2,16,47
36889,5,12,91
22018,7,7,118
27572,5,9,88
8434,5,3,82
30138,4,10,73
7427,2,3,34
25984,1,9,24
4473,3,2,49
18016,5,6,85
43384,5,14,93
12949,0,5,4
30747,5,10,89
19634,1,7,22
10601,2,4,35
19533,1,7,22
670,1,1,16
33431,4,11,74
28468,7,9,120
36567,4,12,75
5704,6,2,97
19575,1,7,22
27418,5,9,88
23936,4,8,71
44641,0,15,14
49944,6,16,111
23824,4,8,71
4609,3,2,49
32566,2,11,42
6618,0,3,2
49126,4,16,79
29250,1,10,25
43353,5,14,93
15658,7,5,116
47767,0,16,15
21256,5,7,86
11733,5,4,83
18938,7,6,117
19297,0,7,6
27047,4,9,72
39364,3,13,60
34740,7,11,122
3791,1,2,17
33322,4,11,74
1302,3,1,48
45395,2,15,46
43226,5,14,93
9342,7,3,114
43622,6,14,109
1384,3,1,48
37468,6,12,107
31165,6,10,105
